<<<<<<< HEAD
/media/data/Projects/javaLearn/fbmeKolyan/ua.fbme/arts95/src/main/java/ua/fbme/QuickSort.java
/media/data/Projects/javaLearn/fbmeKolyan/ua.fbme/arts95/src/main/java/ua/fbme/Menu.java
/media/data/Projects/javaLearn/fbmeKolyan/ua.fbme/arts95/src/main/java/ua/fbme/User.java
/media/data/Projects/javaLearn/fbmeKolyan/ua.fbme/arts95/src/main/java/ua/fbme/Project.java
/media/data/Projects/javaLearn/fbmeKolyan/ua.fbme/arts95/src/main/java/ua/fbme/Main.java
/media/data/Projects/javaLearn/fbmeKolyan/ua.fbme/arts95/src/main/java/ua/fbme/Category.java
=======
/home/kolyan/Study/Java/FBME/arts95/src/main/java/ua/fbme/kick/config/WebConfig.java
/home/kolyan/Study/Java/FBME/arts95/src/main/java/QuickSort.java
/home/kolyan/Study/Java/FBME/arts95/src/main/java/ua/fbme/kick/DAO/UserDAOImpl.java
/home/kolyan/Study/Java/FBME/arts95/src/main/java/ua/fbme/kick/entity/Project.java
/home/kolyan/Study/Java/FBME/arts95/src/main/java/ua/fbme/kick/entity/Menu.java
/home/kolyan/Study/Java/FBME/arts95/src/main/java/ua/fbme/kick/config/AppInit.java
/home/kolyan/Study/Java/FBME/arts95/src/main/java/ua/fbme/kick/entity/Main.java
/home/kolyan/Study/Java/FBME/arts95/src/main/java/ua/fbme/kick/entity/User.java
/home/kolyan/Study/Java/FBME/arts95/src/main/java/ua/fbme/kick/dto/UserDTO.java
/home/kolyan/Study/Java/FBME/arts95/src/main/java/ua/fbme/kick/SpringController.java
/home/kolyan/Study/Java/FBME/arts95/src/main/java/ua/fbme/kick/entity/Role.java
/home/kolyan/Study/Java/FBME/arts95/src/main/java/ua/fbme/kick/DAO/UserDAO.java
/home/kolyan/Study/Java/FBME/arts95/src/main/java/ua/fbme/kick/entity/Category.java
/home/kolyan/Study/Java/FBME/arts95/src/main/java/ua/fbme/kick/service/ObjectBuilder.java
/home/kolyan/Study/Java/FBME/arts95/src/main/java/ua/fbme/kick/service/UserBuilder.java
>>>>>>> 3076d471de5437ea93205463e4b47bc94bd25237
