/media/data/Projects/javaLearn/fbmeKolyan/ua.fbme/yashchenkon/src/test/java/ua/fbme/blog/service/PostBuilderTest.java
/media/data/Projects/javaLearn/fbmeKolyan/ua.fbme/yashchenkon/src/test/java/ua/fbme/blog/service/UserBuilderTest.java
/media/data/Projects/javaLearn/fbmeKolyan/ua.fbme/yashchenkon/src/test/java/ua/fbme/blog/validator/UserDTOValidatorTest.java
/media/data/Projects/javaLearn/fbmeKolyan/ua.fbme/yashchenkon/src/test/java/ua/fbme/blog/validator/PostDTOValidatorTest.java
/media/data/Projects/javaLearn/fbmeKolyan/ua.fbme/yashchenkon/src/test/java/ua/fbme/blog/common/KeyUtilTest.java
