/media/data/Projects/javaLearn/fbmeKolyan/ua.fbme/dub_i/src/main/java/ua/fbme/kickstarter/customer/Statistic.java
/media/data/Projects/javaLearn/fbmeKolyan/ua.fbme/dub_i/src/main/java/ua/fbme/kickstarter/config/AppInit.java
/media/data/Projects/javaLearn/fbmeKolyan/ua.fbme/dub_i/src/main/java/ua/fbme/QuickSort.java
/media/data/Projects/javaLearn/fbmeKolyan/ua.fbme/dub_i/src/main/java/ua/fbme/kickstarter/controller/OneMore.java
/media/data/Projects/javaLearn/fbmeKolyan/ua.fbme/dub_i/src/main/java/ua/fbme/kickstarter/controller/HelloController.java
/media/data/Projects/javaLearn/fbmeKolyan/ua.fbme/dub_i/src/main/java/ua/fbme/kickstarter/config/WebConfig.java
/media/data/Projects/javaLearn/fbmeKolyan/ua.fbme/dub_i/src/main/java/ua/fbme/kickstarter/admin/Edit.java
/media/data/Projects/javaLearn/fbmeKolyan/ua.fbme/dub_i/src/main/java/ua/fbme/kickstarter/user/User.java
